…
Here’s what our table of scraped Twin Peaks data looks like. As you can
see, there are 7 columns and 30 rows, and that David Lynch only directed
a few of the episodes himself.

    ## # A tibble: 30 x 9
    ##    progression title writer director composer season air_date   cast 
    ##          <int> <chr> <list> <chr>    <chr>    <chr>  <date>     <lis>
    ##  1           1 Nort… <chr … David L… Angelo … 1      1990-04-08 <chr…
    ##  2           2 Trac… <chr … Duwayne… Angelo … 1      1990-04-12 <chr…
    ##  3           3 Zen,… <chr … David L… Angelo … 1      1990-04-19 <chr…
    ##  4           4 Rest… <chr … Tina Ra… Angelo … 1      1990-04-26 <chr…
    ##  5           5 The … <chr … Tim Hun… Angelo … 1      1990-05-03 <chr…
    ##  6           6 Coop… <chr … Lesli L… Angelo … 1      1990-05-10 <chr…
    ##  7           7 Real… <chr … Caleb D… Angelo … 1      1990-05-17 <chr…
    ##  8           8 The … <chr … Mark Fr… Angelo … 1      1990-05-23 <chr…
    ##  9           9 May … <chr … David L… Angelo … 2      1990-09-30 <chr…
    ## 10          10 Coma  <chr … David L… Angelo … 2      1990-10-06 <chr…
    ## # … with 20 more rows, and 1 more variable: characters <list>
…
Producing a similar chart with the Twin Peaks data should be quick-work,
since we’ve already scraped the data and prepared our table. The code
below returns a narrower table that includes the appearances for each
character throughout all 30
episodes.

``` r
appearances_per_character <- episode_tibble %>% select(title, characters) %>% tidyr::unnest() %>% group_by(characters) %>% summarise(total_appearances = n()) %>% arrange(desc(total_appearances))
```

    ## # A tibble: 189 x 2
    ##    characters                   total_appearances
    ##    <chr>                                    <int>
    ##  1 Benjamin Horne                              30
    ##  2 Donna Hayward                               30
    ##  3 Sheriff Harry S. Truman                     30
    ##  4 Special Agent Dale Cooper                   30
    ##  5 Audrey Horne                                28
    ##  6 "Deputy Tommy \"Hawk\" Hill"                28
    ##  7 Deputy Andy Brennan                         26
    ##  8 Dr. Will Hayward                            26
    ##  9 Shelly Johnson                              26
    ## 10 Bobby Briggs                                25
    ## # … with 179 more rows
…
